…
    ## Rows: 52179 Columns: 12

    ## ── Column specification ────────────────────────────────────────────────────────
    ## Delimiter: ","
    ## chr (9): uid, victim_last, victim_first, victim_race, victim_age, victim_sex...
    ## dbl (3): reported_date, lat, lon

    ## 
    ## ℹ Use `spec()` to retrieve the full column specification for this data.
    ## ℹ Specify the column types or set `show_col_types = FALSE` to quiet this message.

    ## # A tibble: 52,179 × 12
    ##    uid        reported_date victim_last  victim_first victim_race victim_age
    ##    <chr>              <dbl> <chr>        <chr>        <chr>       <chr>     
    ##  1 Alb-000001      20100504 GARCIA       JUAN         Hispanic    78        
    ##  2 Alb-000002      20100216 MONTOYA      CAMERON      Hispanic    17        
    ##  3 Alb-000003      20100601 SATTERFIELD  VIVIANA      White       15        
    ##  4 Alb-000004      20100101 MENDIOLA     CARLOS       Hispanic    32        
    ##  5 Alb-000005      20100102 MULA         VIVIAN       White       72        
    ##  6 Alb-000006      20100126 BOOK         GERALDINE    White       91        
    ##  7 Alb-000007      20100127 MALDONADO    DAVID        Hispanic    52        
    ##  8 Alb-000008      20100127 MALDONADO    CONNIE       Hispanic    52        
    ##  9 Alb-000009      20100130 MARTIN-LEYVA GUSTAVO      White       56        
    ## 10 Alb-000010      20100210 HERRERA      ISRAEL       Hispanic    43        
    ## # … with 52,169 more rows, and 6 more variables: victim_sex <chr>, city <chr>,
    ## #   state <chr>, lat <dbl>, lon <dbl>, disposition <chr>
…
number_unsolved = homicide_df %>% 
  select(city_state, resolution) %>% 
  filter(resolution == "unsolved") %>% 
  group_by(city_state) %>% 
  summarize(
    number_unsolved = n())

summary_within_city = left_join(number_unsolved, total_homocide) %>%  print()
```

    ## Joining, by = "city_state"

    ## # A tibble: 50 × 3
    ##    city_state    number_unsolved total_homocides
    ##    <chr>                   <int>           <int>
    ##  1 AlbuquerqueNM             146             378
    ##  2 AtlantaGA                 373             973
    ##  3 BaltimoreMD              1825            2827
    ##  4 Baton RougeLA             196             424
    ##  5 BirminghamAL              347             800
    ##  6 BostonMA                  310             614
    ##  7 BuffaloNY                 319             521
    ##  8 CharlotteNC               206             687
    ##  9 ChicagoIL                4073            5535
    ## 10 CincinnatiOH              309             694
    ## # … with 40 more rows
…
    test_result = map(data, prop_test_function),
    tidy_result = map(test_result, broom::tidy)
  ) %>% 
  select(
    city_state,
    tidy_result) %>% 
  unnest(tidy_result) %>% 
  select(
    city_state,
    estimate,
    starts_with("conf")) %>% 
  print()
```

    ## # A tibble: 50 × 4
    ##    city_state    estimate conf.low conf.high
    ##    <chr>            <dbl>    <dbl>     <dbl>
    ##  1 AlbuquerqueNM    0.386    0.337     0.438
    ##  2 AtlantaGA        0.383    0.353     0.415
    ##  3 BaltimoreMD      0.646    0.628     0.663
    ##  4 Baton RougeLA    0.462    0.414     0.511
    ##  5 BirminghamAL     0.434    0.399     0.469
    ##  6 BostonMA         0.505    0.465     0.545
    ##  7 BuffaloNY        0.612    0.569     0.654
    ##  8 CharlotteNC      0.300    0.266     0.336
    ##  9 ChicagoIL        0.736    0.724     0.747
    ## 10 CincinnatiOH     0.445    0.408     0.483
    ## # … with 40 more rows
``` r
## (Alternative) perform prop test using map2 function
homicide_df %>% 
  group_by(city_state) %>% 
  summarize(
    unsolved = sum(resolution == "unsolved"),
    total = n()) %>% 
  mutate(
    test_result = map2(unsolved, total, prop.test),
    tidy_result = map(test_result, broom::tidy)) %>% 
  unnest(tidy_result) %>% 
  select(city_state, estimate, starts_with("conf"))
```

    ## # A tibble: 50 × 4
    ##    city_state    estimate conf.low conf.high
    ##    <chr>            <dbl>    <dbl>     <dbl>
    ##  1 AlbuquerqueNM    0.386    0.337     0.438
    ##  2 AtlantaGA        0.383    0.353     0.415
    ##  3 BaltimoreMD      0.646    0.628     0.663
    ##  4 Baton RougeLA    0.462    0.414     0.511
    ##  5 BirminghamAL     0.434    0.399     0.469
    ##  6 BostonMA         0.505    0.465     0.545
    ##  7 BuffaloNY        0.612    0.569     0.654
    ##  8 CharlotteNC      0.300    0.266     0.336
    ##  9 ChicagoIL        0.736    0.724     0.747
    ## 10 CincinnatiOH     0.445    0.408     0.483
    ## # … with 40 more rows
…
